%YAML 1.1
%TAG !u! tag:unity3d.com,2011:
--- !u!162 &1
EditorUserSettings:
  m_ObjectHideFlags: 0
  serializedVersion: 4
  m_ConfigSettings:
    RecentlyUsedScenePath-0:
      value: 2242470311464677080f021607265a1e5932002b21382a353e662e30e7ee312badc033e7e2283e301c03fc350a393526e20f1a45e305031f08
      flags: 0
    RecentlyUsedScenePath-1:
      value: 2242470311464677080f021607265a1e5932002b21382a353e663c21e1e83d2ee7e379dde2292b353705dd350337053dfd0e1028c5451f05181ae4
      flags: 0
    RecentlyUsedScenePath-2:
      value: 2242470311464677080f021607265a1e5932002b21382a353e663c21e1e83d2ee7e379c6eb3e18091027f73d092e0d3ae1293a45e305031f08
      flags: 0
    RecentlyUsedScenePath-3:
      value: 2242470311464677080f021607265a1e5932002b21382a353e662e30e7ee312badd737fdef092f30300cea190a3a0d3ae119471ef8021e12
      flags: 0
    RecentlyUsedScenePath-4:
      value: 2242470311464677080f021607265a1e5932002b21382a353e662e30e7ee312badcb39eee81936323c0fee280d3d4f2afc031d12
      flags: 0
    RecentlyUsedScenePath-5:
      value: 22424703114646680e0b0227036c6c04131614052e222333393a5326ece92021
      flags: 0
    RecentlyUsedScenePath-6:
      value: 22424703114646680e0b0227036c7c1c131616092d3a36353967083debf42d
      flags: 0
    RecentlyUsedScenePath-7:
      value: 22424703114646680e0b0227036c6d0518360f2b350e343f201d1536c1ef242bacf238e0f323
      flags: 0
    RecentlyUsedScenePath-8:
      value: 22424703114646680e0b0227036c0f432934142f2d2604352c2a157df7ee3d2cfb
      flags: 0
    RecentlyUsedScenePath-9:
      value: 22424703114646680e0b0227036c0f4429250d240d3f27290b3b123ed6e8311bedf725a7f234362820
      flags: 0
    vcSharedLogLevel:
      value: 0d5e400f0650
      flags: 0
  m_VCAutomaticAdd: 1
  m_VCDebugCom: 0
  m_VCDebugCmd: 0
  m_VCDebugOut: 0
  m_SemanticMergeMode: 2
  m_VCShowFailedCheckout: 1
  m_VCOverwriteFailedCheckoutAssets: 1
  m_VCProjectOverlayIcons: 1
  m_VCHierarchyOverlayIcons: 1
  m_VCOtherOverlayIcons: 1
  m_VCAllowAsyncUpdate: 1
